Download the CoV open data catalogue — list_cov_datasets • VancouvR
…
      apikey
      the CoV open data API key, optional

      refresh
      refresh cached data, default `FALSE``

    Value

    tibble format data table output

    Examples

# List and search available datasets
list_cov_datasets()
#> # A tibble: 167 x 20
#>    dataset_id title keyword `search-term` datasetid `data-owner` `data-team`
#>    <chr>      <chr> <chr>   <chr>         <chr>     <chr>        <chr>      
#>  1 garbage-c… Garb… garbage <div></div>   garbage-… City of Van… Engineerin…
#>  2 garbage-c… Garb… garbage <div></div>   garbage-… City of Van… Engineerin…
#>  3 orthophot… Orth… NA      "orthophoto,… orthopho… City of Van… Technology…
#>  4 orthophot… Orth… NA      orthophoto, … orthopho… City of Van… Technology…
#>  5 orthophot… Orth… NA      "orthophoto,… orthopho… City of Van… Technology…
#>  6 digital-e… Digi… NA      elevation, D… digital-… City of Van… Technology…
#>  7 orthophot… Orth… NA      "orthophoto,… orthopho… City of Van… Technology…
#>  8 municipal… Muni… NA      election, re… municipa… City of Van… City Clerk…
#>  9 council-m… Coun… NA      minute, meet… council-… City of Van… City of Va…
#> 10 3-1-1-int… 3-1-… NA      3-1-1, 311, … 3-1-1-in… City of Van… Technology…
#> # … with 157 more rows, and 13 more variables: description <chr>, theme <chr>,
#> #   license <chr>, license_url <chr>, timezone <chr>, modified <chr>,
#> #   modified_updates_on_metadata_change <chr>,
#> #   modified_updates_on_data_change <chr>, data_processed <chr>,
#> #   metadata_processed <chr>, publisher <chr>, records_count <chr>,
#> #   federated <chr>
…
